Year,Month,Day,Time,End Year,End Month,End Day,End Time,Display Date,Headline,Text,Media,Media Credit,Media Caption,Media Thumbnail,Type,Group,Background
1905,7,3,,,,,,,Google Spreadsheet Example,This is a test of using google spreadsheets as a source for the timeline tool,http://www.flickr.com/photos/zachwise/6115056146/in/photostream,Zach Wise/verite.co,"<a href=""http://www.flickr.com/photos/zachwise/6115056146/"" title=""Chicago by zach.wise, on Flickr"">Chicago by zach.wise</a>",,title,,
2012,,,,2012,,,,January — February,A Flickr Example,TimelineJS is an open-source tool that enables you to build visually-rich interactive timelines and is available in 40 languages.,http://www.flickr.com/photos/zachwise/6687123779/in/photostream,Zach Wise/verite.co,Enjoying the snow while sheltered at the train station,,,,
2011,11,1,,2011,12,15,,,Another Flickr Example,It's Easy to Make Your Own Timeline,http://www.flickr.com/photos/zachwise/6894476777/in/photostream,Zach Wise/verite.co,Chicago to NYC,,,,#333333
2011,11,16,05:58:44,2011,11,16,07:30:00,,Vimeo Example,"Illustrate your Timeline with photos, videos, tweets and more.",https://vimeo.com/10089801,Greg Solenström,"Jay Z - ""Hello Brooklyn""",,,,
2011,12,1,,2011,12,2,,,SoundCloud Example,,https://soundcloud.com/conferenceofthebirds/tuesday-02-11-pm,recorded by Joe Germuska,A recording of the radiators at Knight Lab,,,,
2011,12,7,,2011,12,8,,,YouTube Example,,http://www.youtube.com/watch?v=3DiCvHiDWiY,,Edwin Land on BBC,,,,
2011,5,6,,2011,5,7,,,Tweet Example,,https://twitter.com/#!/ArjunaSoriano/status/164181156147900416,,,,,,http://knightlab.northwestern.edu/wp-content/uploads/2015/03/front-page-image.jpg
2011,3,4,,2011,4,4,,,Google Map Example,"Just put a link to the map. Nothing fancy, just a link.","https://www.google.com/maps/place/Medill+School+of+Journalism,+Media,+Integrated+Marketing+Communications+Office+of+Dean/@42.0509363,-87.6737809,18z/data=!4m2!3m1!1s0x0000000000000000:0x683bff755fbf8f0c",,,,,,